2021-05-18T12:40:24.8848042+07:00  [INF] Now listening on: "http://localhost:5001" (d826f4b8)
2021-05-18T12:40:24.8902175+07:00  [INF] Application started. Press Ctrl+C to shut down. (dcaefe54)
2021-05-18T12:40:24.8917234+07:00  [INF] Hosting environment: "Development" (c3307c92)
2021-05-18T12:40:24.8937761+07:00  [INF] Content root path: "D:\op-api\infra-system\InfraSystem.MQ.Api" (b5d60022)
2021-05-18T12:43:21.7548377+07:00 0HM8PNVCDEQ9T:00000001 [WRN] Failed to determine the https port for redirect. (ca76cc21)
2021-05-18T12:43:46.2800956+07:00 0HM8PNVCDEQ9T:00000003 [INF] Connect: "admin@103.139.103.33:5672/" (61c868cd)
2021-05-18T12:45:53.4776777+07:00  [INF] Now listening on: "http://localhost:5001" (d826f4b8)
2021-05-18T12:45:53.4829887+07:00  [INF] Application started. Press Ctrl+C to shut down. (dcaefe54)
2021-05-18T12:45:53.4845067+07:00  [INF] Hosting environment: "Development" (c3307c92)
2021-05-18T12:45:53.4859734+07:00  [INF] Content root path: "D:\op-api\infra-system\InfraSystem.MQ.Api" (b5d60022)
2021-05-18T12:45:56.3214467+07:00 0HM8PO0QFGTQV:00000001 [WRN] Failed to determine the https port for redirect. (ca76cc21)
2021-05-18T12:45:59.3632691+07:00 0HM8PO0QFGTQV:00000001 [INF] Connect: "admin@103.139.103.33:5672/" (61c868cd)
2021-05-18T12:48:20.0982606+07:00  [INF] Now listening on: "http://localhost:5001" (d826f4b8)
2021-05-18T12:48:20.1045743+07:00  [INF] Application started. Press Ctrl+C to shut down. (dcaefe54)
2021-05-18T12:48:20.1065130+07:00  [INF] Hosting environment: "Development" (c3307c92)
2021-05-18T12:48:20.1080610+07:00  [INF] Content root path: "D:\op-api\infra-system\InfraSystem.MQ.Api" (b5d60022)
2021-05-18T12:48:36.1265831+07:00 0HM8PO2A3HBTF:00000001 [WRN] Failed to determine the https port for redirect. (ca76cc21)
2021-05-18T12:48:38.3257760+07:00 0HM8PO2A3HBTF:00000001 [INF] Connect: "admin@103.139.103.33:5672/" (61c868cd)
2021-05-18T12:50:27.9138358+07:00  [INF] Now listening on: "http://localhost:5001" (d826f4b8)
2021-05-18T12:50:27.9196345+07:00  [INF] Application started. Press Ctrl+C to shut down. (dcaefe54)
2021-05-18T12:50:27.9213460+07:00  [INF] Hosting environment: "Development" (c3307c92)
2021-05-18T12:50:27.9226099+07:00  [INF] Content root path: "D:\op-api\infra-system\InfraSystem.MQ.Api" (b5d60022)
2021-05-18T12:50:32.5018086+07:00 0HM8PO3CPCJA4:00000001 [WRN] Failed to determine the https port for redirect. (ca76cc21)
2021-05-18T12:50:34.8103185+07:00 0HM8PO3CPCJA4:00000001 [INF] Connect: "admin@103.139.103.33:5672/" (61c868cd)
2021-05-18T12:54:51.8796041+07:00  [INF] Now listening on: "http://localhost:5001" (d826f4b8)
2021-05-18T12:54:51.8855153+07:00  [INF] Application started. Press Ctrl+C to shut down. (dcaefe54)
2021-05-18T12:54:51.8871715+07:00  [INF] Hosting environment: "Development" (c3307c92)
2021-05-18T12:54:51.8883955+07:00  [INF] Content root path: "D:\op-api\infra-system\InfraSystem.MQ.Api" (b5d60022)
2021-05-18T12:54:54.7205382+07:00 0HM8PO5QU3FBK:00000001 [WRN] Failed to determine the https port for redirect. (ca76cc21)
2021-05-18T12:54:57.7418885+07:00 0HM8PO5QU3FBK:00000001 [INF] Connect: "admin@103.139.103.33:5672/" (61c868cd)
2021-05-18T13:42:16.7701554+07:00  [INF] Now listening on: "http://localhost:5001" (d826f4b8)
2021-05-18T13:42:16.7761358+07:00  [INF] Application started. Press Ctrl+C to shut down. (dcaefe54)
2021-05-18T13:42:16.7781355+07:00  [INF] Hosting environment: "Development" (c3307c92)
2021-05-18T13:42:16.7793460+07:00  [INF] Content root path: "D:\op-api\infra-system\InfraSystem.MQ.Api" (b5d60022)
2021-05-18T13:42:24.6280150+07:00 0HM8PP0C8UTTE:00000001 [WRN] Failed to determine the https port for redirect. (ca76cc21)
2021-05-18T13:42:26.4747723+07:00 0HM8PP0C8UTTE:00000001 [INF] Connect: "admin@103.139.103.33:5672/" (61c868cd)
2021-05-18T13:45:50.2706483+07:00  [INF] Now listening on: "http://localhost:5001" (d826f4b8)
2021-05-18T13:45:50.2782402+07:00  [INF] Application started. Press Ctrl+C to shut down. (dcaefe54)
2021-05-18T13:45:50.2801204+07:00  [INF] Hosting environment: "Development" (c3307c92)
2021-05-18T13:45:50.2821552+07:00  [INF] Content root path: "D:\op-api\infra-system\InfraSystem.MQ.Api" (b5d60022)
2021-05-18T13:47:09.2218176+07:00 0HM8PP3131JKI:00000001 [WRN] Failed to determine the https port for redirect. (ca76cc21)
2021-05-18T13:47:10.9335995+07:00 0HM8PP3131JKI:00000001 [INF] Connect: "admin@103.139.103.33:5672/" (61c868cd)
2021-05-18T13:48:59.7797558+07:00  [INF] Now listening on: "http://localhost:5001" (d826f4b8)
2021-05-18T13:48:59.7851902+07:00  [INF] Application started. Press Ctrl+C to shut down. (dcaefe54)
2021-05-18T13:48:59.7864871+07:00  [INF] Hosting environment: "Development" (c3307c92)
2021-05-18T13:48:59.7877966+07:00  [INF] Content root path: "D:\op-api\infra-system\InfraSystem.MQ.Api" (b5d60022)
2021-05-18T13:49:04.2378739+07:00 0HM8PP43BSO7T:00000001 [WRN] Failed to determine the https port for redirect. (ca76cc21)
2021-05-18T13:49:06.3890896+07:00 0HM8PP43BSO7T:00000001 [INF] Connect: "admin@103.139.103.33:5672/" (61c868cd)
2021-05-18T14:00:40.6706765+07:00  [INF] Now listening on: "http://localhost:5001" (d826f4b8)
2021-05-18T14:00:40.6765973+07:00  [INF] Application started. Press Ctrl+C to shut down. (dcaefe54)
2021-05-18T14:00:40.6779954+07:00  [INF] Hosting environment: "Development" (c3307c92)
2021-05-18T14:00:40.6791544+07:00  [INF] Content root path: "D:\op-api\infra-system\InfraSystem.MQ.Api" (b5d60022)
2021-05-18T14:00:45.1596475+07:00 0HM8PPAK8D73V:00000001 [WRN] Failed to determine the https port for redirect. (ca76cc21)
2021-05-18T14:00:46.9356588+07:00 0HM8PPAK8D73V:00000001 [INF] Connect: "admin@103.139.103.33:5672/" (61c868cd)
2021-05-18T14:04:18.6011248+07:00  [INF] Now listening on: "http://localhost:5001" (d826f4b8)
2021-05-18T14:04:18.6068033+07:00  [INF] Application started. Press Ctrl+C to shut down. (dcaefe54)
2021-05-18T14:04:18.6084788+07:00  [INF] Hosting environment: "Development" (c3307c92)
2021-05-18T14:04:18.6098167+07:00  [INF] Content root path: "D:\op-api\infra-system\InfraSystem.MQ.Api" (b5d60022)
2021-05-18T14:04:27.5361492+07:00 0HM8PPCMH52BO:00000001 [WRN] Failed to determine the https port for redirect. (ca76cc21)
2021-05-18T14:04:30.5037621+07:00 0HM8PPCMH52BO:00000001 [INF] Connect: "admin@103.139.103.33:5672/" (61c868cd)
2021-05-18T15:39:26.3888961+07:00  [INF] Now listening on: "http://localhost:5001" (d826f4b8)
2021-05-18T15:39:26.3942644+07:00  [INF] Application started. Press Ctrl+C to shut down. (dcaefe54)
2021-05-18T15:39:26.3956312+07:00  [INF] Hosting environment: "Development" (c3307c92)
2021-05-18T15:39:26.3969050+07:00  [INF] Content root path: "D:\op-api\infra-system\InfraSystem.MQ.Api" (b5d60022)
2021-05-18T15:39:55.3524211+07:00 0HM8PR21HSBS1:00000001 [WRN] Failed to determine the https port for redirect. (ca76cc21)
2021-05-18T15:40:16.5052970+07:00 0HM8PR21HSBS1:00000003 [INF] Connect: "admin@103.139.103.33:5672/" (61c868cd)
