{
  "profiles": {
    "InfraSystem.MQ.Worker": {
      "commandName": "Project",
      "environmentVariables": {
        "DOTNET_ENVIRONMENT": "Development"
      }
    },
    "Docker (1)": {
      "commandName": "Docker"
    }
  }
}